JvmtiExport can_access_local_variables 0
JvmtiExport can_hotswap_or_post_breakpoint 0
JvmtiExport can_post_on_exceptions 0
# 726 ciObject found
ciMethod java/lang/Object <init> ()V 4097 1 2840060 0 0
ciMethod java/lang/Object getClass ()Ljava/lang/Class; 2049 1 256 0 -1
ciMethod java/lang/Object hashCode ()I 2049 1 256 0 -1
ciMethod java/lang/Object equals (Ljava/lang/Object;)Z 2129 1 64419 0 -1
ciMethod java/lang/Object toString ()Ljava/lang/String; 33 1 4 0 -1
ciMethod java/lang/CharSequence length ()I 0 0 1 0 -1
ciMethod java/lang/String <init> ([CII)V 3041 1 5568 0 768
ciMethod java/lang/String length ()I 4097 1 283816 0 0
ciMethod java/lang/String isEmpty ()Z 2185 1 85245 0 64
ciMethod java/lang/String charAt (I)C 4097 1 961295 0 -1
ciMethod java/lang/String getChars (II[CI)V 2529 1 5656 0 -1
ciMethod java/lang/String compareTo (Ljava/lang/String;)I 3353 15785 6702 0 -1
ciMethod java/lang/String regionMatches (ILjava/lang/String;II)Z 4097 1 17508 0 0
ciMethod java/lang/String startsWith (Ljava/lang/String;I)Z 2089 513 11593 0 -1
ciMethod java/lang/String startsWith (Ljava/lang/String;)Z 2105 1 60926 0 -1
ciMethod java/lang/String indexOf (I)I 2065 1 121841 0 288
ciMethod java/lang/String indexOf (II)I 1017 57545 827 0 384
ciMethod java/lang/String indexOfSupplementary (II)I 0 0 1 0 -1
ciMethod java/lang/String lastIndexOf (I)I 2049 1 56044 0 288
ciMethod java/lang/String lastIndexOf (II)I 897 57465 945 0 -1
ciMethod java/lang/String substring (I)Ljava/lang/String; 2049 1 5478 0 928
ciMethod java/lang/String substring (II)Ljava/lang/String; 3161 1 5590 0 992
ciMethod java/lang/AbstractStringBuilder <init> (I)V 1273 1 115107 0 0
ciMethod java/lang/AbstractStringBuilder ensureCapacityInternal (I)V 4097 1 184285 0 -1
ciMethod java/lang/AbstractStringBuilder append (Ljava/lang/String;)Ljava/lang/AbstractStringBuilder; 2105 1 5612 0 1120
ciMethod java/lang/AbstractStringBuilder appendNull ()Ljava/lang/AbstractStringBuilder; 0 0 1 0 -1
ciMethod java/lang/StringBuilder <init> ()V 969 1 99719 0 192
ciMethod java/lang/StringBuilder append (Ljava/lang/Object;)Ljava/lang/StringBuilder; 209 1 7599 0 -1
ciMethod java/lang/StringBuilder append (Ljava/lang/String;)Ljava/lang/StringBuilder; 2089 1 193899 0 992
ciMethod java/lang/StringBuilder append (C)Ljava/lang/StringBuilder; 4097 1 137724 0 -1
ciMethod java/lang/StringBuilder toString ()Ljava/lang/String; 1049 1 103984 0 832
ciMethod java/lang/Boolean booleanValue ()Z 1105 1 138 0 -1
ciMethod java/lang/Number <init> ()V 3305 1 17191 0 0
ciMethod java/lang/Integer valueOf (I)Ljava/lang/Integer; 2049 1 72658 0 192
ciMethod java/lang/Integer <init> (I)V 2601 1 11040 0 0
ciMethod java/lang/Integer intValue ()I 1113 1 139 0 -1
ciMethod java/lang/Iterable iterator ()Ljava/util/Iterator; 0 0 1 0 -1
ciMethod java/util/Collection size ()I 0 0 1 0 -1
ciMethod java/util/Collection isEmpty ()Z 0 0 1 0 -1
ciMethod java/util/List size ()I 0 0 1 0 -1
ciMethod java/util/List isEmpty ()Z 0 0 1 0 -1
ciMethod java/util/List iterator ()Ljava/util/Iterator; 0 0 1 0 -1
ciMethod java/util/List get (I)Ljava/lang/Object; 0 0 1 0 -1
ciMethod java/util/List subList (II)Ljava/util/List; 0 0 1 0 -1
ciMethod java/util/AbstractCollection size ()I 0 0 1 0 -1
ciMethod java/util/ArrayList size ()I 1025 1 128 0 0
ciMethod java/util/ArrayList elementData (I)Ljava/lang/Object; 2121 1 245455 0 0
ciMethod java/util/ArrayList get (I)Ljava/lang/Object; 2121 1 214877 0 128
ciMethod java/util/ArrayList rangeCheck (I)V 2121 1 230368 0 64
ciMethod java/util/Set contains (Ljava/lang/Object;)Z 0 0 1 0 -1
ciMethod java/util/HashMap hash (Ljava/lang/Object;)I 2057 1 115689 0 160
ciMethod java/util/HashMap getNode (ILjava/lang/Object;)Ljava/util/HashMap$Node; 2049 1 6638 0 544
ciMethod java/util/HashMap containsKey (Ljava/lang/Object;)Z 113 1 44270 0 640
ciMethod java/lang/Math min (II)I 3881 1 97888 0 -1
ciMethod java/util/Iterator hasNext ()Z 0 0 1 0 -1
ciMethod java/util/Iterator next ()Ljava/lang/Object; 0 0 1 0 -1
ciMethod java/util/Arrays copyOfRange ([CII)[C 3153 1 5615 0 -1
ciMethod java/lang/Enum ordinal ()I 1145 1 143 0 -1
ciMethod java/lang/Enum equals (Ljava/lang/Object;)Z 2073 1 1641 0 0
ciMethod java/lang/Enum hashCode ()I 3089 1 11640 0 96
ciMethodData java/lang/Object <init> ()V 2 2840060 orig 264 56 173 95 104 0 0 0 0 128 4 27 22 0 0 0 0 32 1 0 0 0 0 0 0 0 0 0 0 0 0 0 0 0 0 0 0 0 0 0 0 0 0 0 0 0 0 0 0 0 0 0 0 0 0 0 0 0 0 0 0 0 0 0 0 0 0 0 0 0 0 0 0 0 0 0 0 0 0 0 0 77 68 79 32 101 120 116 114 97 32 100 97 116 97 32 108 111 99 107 0 0 0 0 0 0 0 0 0 0 0 0 0 0 0 0 0 0 0 0 0 0 0 0 0 0 0 0 0 0 0 0 0 0 0 0 0 0 0 0 0 0 0 0 0 0 0 0 0 0 0 0 0 0 0 0 0 0 0 0 0 0 0 0 0 0 0 0 0 0 0 0 0 0 0 0 0 0 0 0 0 0 0 0 0 1 0 0 0 0 0 0 0 1 0 0 0 0 0 0 0 1 0 0 0 0 0 0 0 0 0 0 0 0 0 0 0 0 2 0 0 225 159 90 1 1 0 0 0 0 0 0 0 0 0 0 0 2 0 0 0 0 0 3 0 1 0 0 0 0 0 0 0 255 255 255 255 0 0 0 0 0 0 0 0 data 0 oops 0
ciMethod java/util/HashMap$TreeNode getTreeNode (ILjava/lang/Object;)Ljava/util/HashMap$TreeNode; 0 0 1 0 -1
ciMethod java/util/HashSet contains (Ljava/lang/Object;)Z 3249 1 38010 0 1376
ciMethodData java/lang/String indexOf (II)I 2 32603 orig 264 56 173 95 104 0 0 0 0 128 81 27 22 0 0 0 0 16 2 0 0 88 0 0 0 0 0 0 0 0 0 0 0 0 0 0 0 0 0 0 0 0 0 0 0 0 0 0 0 0 0 0 0 0 0 0 0 0 0 0 0 0 0 0 0 0 0 0 0 0 0 0 0 0 0 0 0 0 0 0 0 77 68 79 32 101 120 116 114 97 32 100 97 116 97 32 108 111 99 107 0 0 0 0 0 0 0 0 0 0 0 0 0 0 0 0 0 0 0 0 0 0 0 0 0 0 0 0 0 0 0 0 0 0 0 0 0 0 0 0 0 0 0 0 0 0 0 0 0 0 0 0 0 0 0 0 0 0 0 0 0 0 0 0 0 0 0 0 0 0 0 0 0 0 0 0 0 0 0 0 0 0 0 0 0 17 0 0 0 0 0 0 0 0 0 0 0 0 0 0 0 0 0 0 0 0 0 0 0 0 0 0 0 0 0 0 0 25 28 0 0 225 21 0 0 17 26 3 0 0 0 0 0 0 0 0 0 2 0 0 0 1 0 15 0 2 0 0 0 224 0 0 0 255 255 255 255 7 0 7 0 0 0 0 0 data 28 0x70007 0x2bc 0x38 0x0 0xc0003 0x0 0x38 0x110007 0x252 0x20 0x6a 0x190007 0x0 0x78 0x252 0x280007 0x241 0x58 0x6353 0x310007 0x6342 0x20 0x11 0x3a0003 0x6342 0xffffffffffffffc0 0x420002 0x0 oops 0
ciMethodData java/lang/String length ()I 2 287408 orig 264 56 173 95 104 0 0 0 0 96 60 27 22 0 0 0 0 32 1 0 0 0 0 0 0 0 0 0 0 0 0 0 0 0 0 0 0 0 0 0 0 0 0 0 0 0 0 0 0 0 0 0 0 0 0 0 0 0 0 0 0 0 0 0 0 0 0 0 0 0 0 0 0 0 0 0 0 0 0 0 0 77 68 79 32 101 120 116 114 97 32 100 97 116 97 32 108 111 99 107 0 0 0 0 0 0 0 0 0 0 0 0 0 0 0 0 0 0 0 0 0 0 0 0 0 0 0 0 0 0 0 0 0 0 0 0 0 0 0 0 0 0 0 0 0 0 0 0 0 0 0 0 0 0 0 0 0 0 0 0 0 0 0 0 0 0 0 0 0 0 0 0 0 0 0 0 0 0 0 0 0 0 0 0 0 1 0 0 0 0 0 0 0 0 0 0 0 0 0 0 0 1 0 0 0 0 0 0 0 0 0 0 0 0 0 0 0 0 2 0 0 129 5 35 0 1 0 0 0 0 0 0 0 0 0 0 0 2 0 0 0 0 0 3 0 1 0 0 0 0 0 0 0 255 255 255 255 0 0 0 0 0 0 0 0 data 0 oops 0
ciMethodData java/lang/AbstractStringBuilder append (Ljava/lang/String;)Ljava/lang/AbstractStringBuilder; 2 5612 orig 264 56 173 95 104 0 0 0 0 88 80 34 22 0 0 0 0 240 1 0 0 32 0 0 0 0 0 0 0 0 0 0 0 0 0 0 0 0 0 0 0 0 0 0 0 0 0 0 0 0 0 0 0 0 0 0 0 0 0 0 0 0 0 0 0 0 0 0 0 0 0 0 0 0 0 0 0 0 0 0 0 77 68 79 32 101 120 116 114 97 32 100 97 116 97 32 108 111 99 107 0 0 0 0 0 0 0 0 0 0 0 0 0 0 0 0 0 0 0 0 0 0 0 0 0 0 0 0 0 0 0 0 0 0 0 0 0 0 0 0 0 0 0 0 0 0 0 0 0 0 0 0 0 0 0 0 0 0 0 0 0 0 0 0 0 0 0 0 0 0 0 0 0 0 0 0 0 0 0 0 0 0 0 0 0 17 0 0 0 0 0 0 0 0 0 0 0 0 0 0 0 2 0 0 0 0 0 0 0 1 0 0 0 0 0 0 0 7 1 0 0 41 167 0 0 1 0 0 0 0 0 0 0 0 0 0 0 2 0 0 0 0 0 14 0 2 0 0 0 160 0 0 0 255 255 255 255 7 0 1 0 0 0 0 0 data 20 0x10007 0x14e5 0x30 0x0 0x50002 0x0 0xa0005 0x3 0x30eb960 0x14e2 0x0 0x0 0x150002 0x14e5 0x230005 0x3 0x30eb960 0x14e2 0x0 0x0 oops 2